<?xml version="1.0"?>
<svg xmlns="http://www.w3.org/2000/svg" xmlns:xlink="http://www.w3.org/1999/xlink" xmlns:svgjs="http://svgjs.com/svgjs" version="1.1" width="512" height="512" x="0" y="0" viewBox="0 0 512 512" style="enable-background:new 0 0 512 512" xml:space="preserve" class=""><g>
<path xmlns="http://www.w3.org/2000/svg" d="M226,146c5.52,0,10-4.48,10-10s-4.48-10-10-10s-10,4.48-10,10S220.48,146,226,146z" fill="#bfc7d9" data-original="#000000" style="" class=""/>
<path xmlns="http://www.w3.org/2000/svg" d="M226,106c5.523,0,10-4.477,10-10V50c0-5.523-4.477-10-10-10s-10,4.477-10,10v46C216,101.523,220.477,106,226,106z" fill="#bfc7d9" data-original="#000000" style="" class=""/>
<path xmlns="http://www.w3.org/2000/svg" d="M186,146c5.523,0,10-4.477,10-10V50c0-5.523-4.477-10-10-10s-10,4.477-10,10v86C176,141.523,180.477,146,186,146z" fill="#bfc7d9" data-original="#000000" style="" class=""/>
<path xmlns="http://www.w3.org/2000/svg" d="M76.499,229.929C63.28,243.148,56,260.728,56,279.43V502c0,5.523,4.477,10,10,10h180c5.523,0,10-4.477,10-10v-59.076  c36.172-15.11,60-50.479,60-90.174V346h70c5.523,0,10-4.477,10-10V80h20c22.098,0,40-17.899,40-40c0-22.056-17.944-40-40-40H116  C93.902,0,76,17.899,76,40c0,22.056,17.944,40,40,40h20v90.427L76.499,229.929z M296,352.75c0,33.524-21.364,63.167-53.162,73.763  C238.755,427.874,236,431.695,236,436v56H76V279.43c0-13.36,5.2-25.918,14.641-35.359L136,198.712v56.585l-5.351,5.352  c-3.905,3.905-3.905,10.237,0,14.142s10.237,3.905,14.142,0c14.581-14.583,52.59-52.599,70.197-70.208  c11.164-11.155,28.37-13.233,40.029-4.828c15.772,11.354,16.597,33.055,3.911,45.733c0,0-40.305,40.305-59.036,59.077  c-7.904,7.919-10.699,19.36-7.288,29.88C194.819,341.226,196,348.571,196,356c0,20.048-8.659,39.184-23.755,52.501  c-4.142,3.653-4.538,9.973-0.884,14.114c3.642,4.128,9.96,4.548,14.114,0.884C204.874,406.387,216,381.785,216,356  c0-3.347-0.197-6.686-0.565-10H296V352.75z M296,326V20h40v306H296z M211.213,326c-0.156-2.644,0.836-5.303,2.836-7.307  c18.728-18.768,59.021-59.062,59.02-59.06c1.033-1.032,2.001-2.114,2.931-3.222V326H211.213z M276,192.178  c-2.696-3.218-5.8-6.136-9.292-8.65c-19.522-14.074-47.833-11.103-65.86,6.911L156,235.294v-60.719c0-0.003,0-0.007,0-0.01V20h120  V192.178z M376,326h-20V20h20V326z M436,40c0,11.046-8.954,20-20,20h-20V20h20C427.028,20,436,28.972,436,40z M116,60  c-11.028,0-20-8.972-20-20c0-11.046,8.954-20,20-20h20v40H116z" fill="#bfc7d9" data-original="#000000" style="" class=""/>
<g xmlns="http://www.w3.org/2000/svg">
</g>
<g xmlns="http://www.w3.org/2000/svg">
</g>
<g xmlns="http://www.w3.org/2000/svg">
</g>
<g xmlns="http://www.w3.org/2000/svg">
</g>
<g xmlns="http://www.w3.org/2000/svg">
</g>
<g xmlns="http://www.w3.org/2000/svg">
</g>
<g xmlns="http://www.w3.org/2000/svg">
</g>
<g xmlns="http://www.w3.org/2000/svg">
</g>
<g xmlns="http://www.w3.org/2000/svg">
</g>
<g xmlns="http://www.w3.org/2000/svg">
</g>
<g xmlns="http://www.w3.org/2000/svg">
</g>
<g xmlns="http://www.w3.org/2000/svg">
</g>
<g xmlns="http://www.w3.org/2000/svg">
</g>
<g xmlns="http://www.w3.org/2000/svg">
</g>
<g xmlns="http://www.w3.org/2000/svg">
</g>
</g></svg>
